1,1
2,2
3,3
4,4
5,316
6,317
7,318
8,319
9,320
10,321
11,322
12,323
13,324
14,325
15,326
16,327
17,328
18,329
19,330
20,331
21,332
22,341
23,342
24,343
25,344
26,345
27,346
28,347
29,348
30,349
31,350
32,351
33,352
34,355
35,356
36,357
37,358
38,359
39,360
40,361
41,362
42,363
43,364
44,365
45,366
46,367
47,368
48,369
49,370
50,371
51,372
52,373
53,374
54,375
55,376
56,377
57,378
58,379
59,380
60,381
61,382
62,383
63,384
64,385
65,386
66,387
67,388
68,389
69,390
70,391
71,392
72,393
73,394
74,395
75,396
76,397
77,398
78,399
79,400
80,401
81,402
82,403
83,404
84,405
85,406
86,407
87,408
88,409
89,410
90,411
91,412
92,413
93,414
94,415
95,416
96,417
97,418
98,419
99,420
100,421
101,422
102,423
103,424
104,425
105,426
106,427
107,428
108,429
109,430
110,431
111,432
112,433
113,434
114,435
115,436
116,437
117,438
118,439
119,440
120,441
121,442
122,443
123,444
124,445
125,446
126,447
127,448
128,449
129,450
130,451
131,452
132,453
133,454
134,455
135,456
136,457
137,458
138,459
139,460
140,461
141,462
142,463
143,464
144,465
145,466
146,467
147,468
148,469
149,470
150,471
151,472
152,473
153,474
154,475
155,476
156,477
157,478
158,479
159,480
160,481
161,482
162,483
163,484
164,485
165,486
166,487
167,488
168,489
169,490
170,491
171,492
172,493
173,494
174,495
175,496
176,497
177,504
178,505
179,506
180,507
181,508
182,509
183,510
184,511
185,512
186,513
187,514
188,515
189,516
190,517
191,518
192,519
193,520
194,521
195,522
196,523
197,524
198,525
199,526
200,527
201,528
202,529
203,530
204,531
205,532
206,533
207,534
208,535
209,679
210,680
211,706
212,707
213,708
214,709
215,710
216,711
217,712
218,713
219,714
220,715
221,716
222,717
223,718
224,719
225,720
226,721
227,722
228,723
229,724
230,725
231,726
232,727
233,728
234,729
235,730
236,731
237,732
238,733
239,734
240,735
241,736
242,737
243,738
244,739
245,740
246,741
247,742
248,743
249,744
250,745
251,746
252,747
253,748
254,749
255,750
256,751
257,752
258,753
259,754
260,755
261,756
262,757
263,758
264,759
265,760
266,761
267,762
268,763
269,764
270,765
271,766
272,767
273,768
274,769
275,770
276,771
277,772
278,773
279,774
280,775
281,776
282,777
283,778
284,779
285,780
286,781
287,782
288,783
289,784
290,785
291,786
292,787
293,788
294,789
295,790
296,791
297,792
298,793
299,794
300,795
301,796
302,797
303,798
304,799
305,800
306,801
307,802
308,803
309,804
310,805
311,806
312,807
313,808
314,809
315,810
316,811
317,812
318,813
319,814
320,815
321,816
322,817
323,818
324,819
325,820
326,821
327,822
328,823
329,824
330,825
331,826
332,827
333,828
334,829
335,830
336,831
337,832
338,833
339,834
340,835
341,836
342,837
343,838
344,839
345,840
346,841
347,842
348,843
349,844
350,845
351,846
352,847
353,848
354,849
355,850
356,851
357,852
358,853
359,854
360,855
361,856
362,857
363,858
364,859
365,860
366,861
367,862
368,863
369,864
370,865
371,866
372,867
373,868
374,869
375,870
376,871
377,872
378,873
379,874
380,875
381,876
382,877
383,878
384,879
385,880
386,881
387,882
388,883
389,884
390,885
391,886
392,887
393,888
394,889
395,890
396,891
397,892
398,893
399,894
400,895
401,896
402,897
403,898
404,899
405,900
406,901
407,902
408,903
409,904
410,905
411,906
412,907
413,908
414,909
415,910
416,911
417,912
418,913
419,914
420,915
421,916
422,917
423,918
424,919
425,920
426,921
427,922
428,923
429,924
430,925
431,926
432,927
433,928
434,929
435,930
436,931
437,932
438,933
439,934
440,935
441,936
442,937
443,938
444,939
445,940
446,941
447,942
448,943
449,944
450,945
451,946
452,947
453,948
454,949
455,950
456,951
457,952
458,953
459,954
460,955
461,956
462,957
463,958
464,959
465,960
466,961
467,962
468,963
469,964
470,965
471,966
472,967
473,968
474,969
475,970
476,971
477,972
478,973
479,974
480,975
481,976
482,977
483,978
484,979
485,980
486,981
487,982
488,983
489,984
490,985
491,986
492,987
493,988
494,989
495,990
496,991
497,992
498,993
499,994
500,995
501,996
502,997
503,998
504,999
